Capstone-Data-Science-Jorge-Castro-Martínez.knit
…
##    Min. 1st Qu.  Median    Mean 3rd Qu.    Max. 
##   36.30   63.30   72.10   69.29   75.70   89.00

#Life_Adult <-data %>% select(Adult.Mortality, Country) %>% filter(Year==2015 & Country=="Costa Rica")
#Life_Adult

#Life_Adult_world <-data %>% select(Adult.Mortality, Country) %>% filter(Year==2015)
#Life_Adult_world

data %>%
  group_by(data$Country) %>%
  summarize(min_size = min(Life.expectancy, na.rm = TRUE))

## # A tibble: 214 × 2
##    `data$Country`      min_size
##    <chr>                  <dbl>
##  1 Afghanistan             54.8
##  2 Albania                 72.6
##  3 Algeria                 71.3
##  4 Angola                  45.3
##  5 Antigua and Barbuda     73.6
##  6 Argentina               74  
##  7 Armenia                 72  
##  8 Australia               79.5
##  9 Austria                 78.1
## 10 Azerbaijan              66.6
## # ℹ 204 more rows
…
#Add numerical variables by country (filtered)
# Average numerical variables by country for OECD countries

data_agg_ocde <- data_ocde %>%
  group_by(Country) %>%
  summarize(across(where(is.numeric), mean))

## Delete the Year and HIV/AIDS column

data_agg_ocde2 <-data_agg_ocde[,-c(2,15)]  
data_agg_ocde2

## # A tibble: 33 × 19
##    Country    Life.expectancy Adult.Mortality infant.deaths Alcohol
##    <chr>                <dbl>           <dbl>         <dbl>   <dbl>
##  1 Australia             81.8            63.2          1       9.81
##  2 Austria               81.5            65.8          0      11.8 
##  3 Belgium               80.7            70.2          0.25   10.6 
##  4 Canada                81.7            64.6          2       7.84
##  5 Chile                 79.4            63.6          2       6.83
##  6 Colombia              73.3           124.          13.9     4.43
##  7 Costa Rica            78.6            69.4          1       3.97
##  8 Denmark               79.3            66.1          0      10.3 
##  9 Estonia               74.9           170.           0       8.74
## 10 Finland               80.7            68.9          0       9.24
## # ℹ 23 more rows
## # ℹ 14 more variables: percentage.expenditure <dbl>, Hepatitis.B <dbl>,
## #   Measles <dbl>, BMI <dbl>, under.five.deaths <dbl>, Polio <dbl>,
## #   Total.expenditure <dbl>, Diphtheria <dbl>, GDP <dbl>, Population <dbl>,
## #   thinness..1.19.years <dbl>, thinness.5.9.years <dbl>,
## #   Income.composition.of.resources <dbl>, Schooling <dbl>

# Show the first rows of the added dataframe
data_agg_ocde

## # A tibble: 33 × 21
##    Country     Year Life.expectancy Adult.Mortality infant.deaths Alcohol
##    <chr>      <dbl>           <dbl>           <dbl>         <dbl>   <dbl>
##  1 Australia  2008.            81.8            63.2          1       9.81
##  2 Austria    2008.            81.5            65.8          0      11.8 
##  3 Belgium    2008.            80.7            70.2          0.25   10.6 
##  4 Canada     2008.            81.7            64.6          2       7.84
##  5 Chile      2008.            79.4            63.6          2       6.83
##  6 Colombia   2008.            73.3           124.          13.9     4.43
##  7 Costa Rica 2008.            78.6            69.4          1       3.97
##  8 Denmark    2008.            79.3            66.1          0      10.3 
##  9 Estonia    2008.            74.9           170.           0       8.74
## 10 Finland    2008.            80.7            68.9          0       9.24
## # ℹ 23 more rows
## # ℹ 15 more variables: percentage.expenditure <dbl>, Hepatitis.B <dbl>,
## #   Measles <dbl>, BMI <dbl>, under.five.deaths <dbl>, Polio <dbl>,
## #   Total.expenditure <dbl>, Diphtheria <dbl>, HIV.AIDS <dbl>, GDP <dbl>,
## #   Population <dbl>, thinness..1.19.years <dbl>, thinness.5.9.years <dbl>,
## #   Income.composition.of.resources <dbl>, Schooling <dbl>
…
# Convert 'Country' column to row names

rownames(data_agg_ocde2) <- data_agg_ocde2$Country

# Remove the 'Country' column as it is now in the row names
data_agg_ocde2 <- data_agg_ocde2[, -which(names(data_agg_ocde2) == "Country")]
data_agg_ocde2

## # A tibble: 33 × 18
##    Life.expectancy Adult.Mortality infant.deaths Alcohol percentage.expenditure
##              <dbl>           <dbl>         <dbl>   <dbl>                  <dbl>
##  1            81.8            63.2          1       9.81                  5332.
##  2            81.5            65.8          0      11.8                   4928.
##  3            80.7            70.2          0.25   10.6                   2392.
##  4            81.7            64.6          2       7.84                  4694.
##  5            79.4            63.6          2       6.83                   776.
##  6            73.3           124.          13.9     4.43                   517.
##  7            78.6            69.4          1       3.97                   972.
##  8            79.3            66.1          0      10.3                   5313.
##  9            74.9           170.           0       8.74                   860.
## 10            80.7            68.9          0       9.24                  2889.
## # ℹ 23 more rows
## # ℹ 13 more variables: Hepatitis.B <dbl>, Measles <dbl>, BMI <dbl>,
## #   under.five.deaths <dbl>, Polio <dbl>, Total.expenditure <dbl>,
## #   Diphtheria <dbl>, GDP <dbl>, Population <dbl>, thinness..1.19.years <dbl>,
## #   thinness.5.9.years <dbl>, Income.composition.of.resources <dbl>,
## #   Schooling <dbl>
…
Logistic regression

Average numerical variables by country for OECD countries

data_agg_ocde_logistic <- data_ocde %>%
  group_by(Country, Status) %>%
  summarize(across(where(is.numeric), mean))

data_agg_ocde_logistic

## # A tibble: 33 × 22
## # Groups:   Country [33]
##    Country    Status  Year Life.expectancy Adult.Mortality infant.deaths Alcohol
##    <chr>      <chr>  <dbl>           <dbl>           <dbl>         <dbl>   <dbl>
##  1 Australia  Devel… 2008.            81.8            63.2          1       9.81
##  2 Austria    Devel… 2008.            81.5            65.8          0      11.8 
##  3 Belgium    Devel… 2008.            80.7            70.2          0.25   10.6 
##  4 Canada     Devel… 2008.            81.7            64.6          2       7.84
##  5 Chile      Devel… 2008.            79.4            63.6          2       6.83
##  6 Colombia   Devel… 2008.            73.3           124.          13.9     4.43
##  7 Costa Rica Devel… 2008.            78.6            69.4          1       3.97
##  8 Denmark    Devel… 2008.            79.3            66.1          0      10.3 
##  9 Estonia    Devel… 2008.            74.9           170.           0       8.74
## 10 Finland    Devel… 2008.            80.7            68.9          0       9.24
## # ℹ 23 more rows
## # ℹ 15 more variables: percentage.expenditure <dbl>, Hepatitis.B <dbl>,
## #   Measles <dbl>, BMI <dbl>, under.five.deaths <dbl>, Polio <dbl>,
## #   Total.expenditure <dbl>, Diphtheria <dbl>, HIV.AIDS <dbl>, GDP <dbl>,
## #   Population <dbl>, thinness..1.19.years <dbl>, thinness.5.9.years <dbl>,
## #   Income.composition.of.resources <dbl>, Schooling <dbl>

Delete the Year and HIV/AIDS column

data_agg_ocde_logistic <-data_agg_ocde_logistic[,-c(3,16)]  
data_agg_ocde_logistic

## # A tibble: 33 × 20
## # Groups:   Country [33]
##    Country    Status     Life.expectancy Adult.Mortality infant.deaths Alcohol
##    <chr>      <chr>                <dbl>           <dbl>         <dbl>   <dbl>
##  1 Australia  Developed             81.8            63.2          1       9.81
##  2 Austria    Developed             81.5            65.8          0      11.8 
##  3 Belgium    Developed             80.7            70.2          0.25   10.6 
##  4 Canada     Developing            81.7            64.6          2       7.84
##  5 Chile      Developing            79.4            63.6          2       6.83
##  6 Colombia   Developing            73.3           124.          13.9     4.43
##  7 Costa Rica Developing            78.6            69.4          1       3.97
##  8 Denmark    Developed             79.3            66.1          0      10.3 
##  9 Estonia    Developing            74.9           170.           0       8.74
## 10 Finland    Developing            80.7            68.9          0       9.24
## # ℹ 23 more rows
## # ℹ 14 more variables: percentage.expenditure <dbl>, Hepatitis.B <dbl>,
## #   Measles <dbl>, BMI <dbl>, under.five.deaths <dbl>, Polio <dbl>,
## #   Total.expenditure <dbl>, Diphtheria <dbl>, GDP <dbl>, Population <dbl>,
## #   thinness..1.19.years <dbl>, thinness.5.9.years <dbl>,
## #   Income.composition.of.resources <dbl>, Schooling <dbl>
…
