MOVIELENS-JORGE-CASTRO-MARTÍNEZ.knit
…
#Movies in the different genres

Moviesbygenres <- edx %>% 
  group_by(genres) %>% 
  summarize(Total = n())

Moviesbygenres

## # A tibble: 797 × 2
##    genres                                             Total
##    <chr>                                              <int>
##  1 (no genres listed)                                     6
##  2 Action                                             24575
##  3 Action|Adventure                                   68611
##  4 Action|Adventure|Animation|Children|Comedy          7438
##  5 Action|Adventure|Animation|Children|Comedy|Fantasy   191
##  6 Action|Adventure|Animation|Children|Comedy|IMAX       62
##  7 Action|Adventure|Animation|Children|Comedy|Sci-Fi    600
##  8 Action|Adventure|Animation|Children|Fantasy          743
##  9 Action|Adventure|Animation|Children|Sci-Fi            51
## 10 Action|Adventure|Animation|Comedy|Drama             1896
## # ℹ 787 more rows
…
## tibble [769 × 7] (S3: tbl_df/tbl/data.frame)
##  $ genres     : chr [1:769] "(no genres listed)" "Action" "Action|Adventure" "Action|Adventure|Animation|Children|Comedy" ...
##  $ userId     : num [1:769] 57696 35414 36095 36235 24423 ...
##  $ movieId    : num [1:769] 8606 2146 2496 10051 51939 ...
##  $ rating     : num [1:769] 4.5 2.96 3.66 3.95 3.32 ...
##  $ timestamp  : num [1:769] 1.23e+09 9.92e+08 1.05e+09 1.16e+09 1.20e+09 ...
##  $ ratingYear : num [1:769] 2008 2001 2003 2006 2008 ...
##  $ ratingMonth: num [1:769] 12 6.69 6.74 6.36 6.55 ...

Delete some columns`

training_set<-training_set[,-c(5:7)]  
training_set

## # A tibble: 797 × 4
##    genres                                             userId movieId rating
##    <chr>                                               <dbl>   <dbl>  <dbl>
##  1 (no genres listed)                                 37569.   8606    3.5 
##  2 Action                                             35819.   2083.   2.93
##  3 Action|Adventure                                   36116.   2516.   3.66
##  4 Action|Adventure|Animation|Children|Comedy         36414.  10416.   3.97
##  5 Action|Adventure|Animation|Children|Comedy|Fantasy 34700.  51939    2.94
##  6 Action|Adventure|Animation|Children|Comedy|IMAX    37804.  62999    3.27
##  7 Action|Adventure|Animation|Children|Comedy|Sci-Fi  35702.  44800.   3.09
##  8 Action|Adventure|Animation|Children|Fantasy        36460.    558    2.68
##  9 Action|Adventure|Animation|Children|Sci-Fi         37216.   8537    2.93
## 10 Action|Adventure|Animation|Comedy|Drama            36505.   8917    3.53
## # ℹ 787 more rows

testing_set<-testing_set[,-c(5:7)]  
testing_set

## # A tibble: 769 × 4
##    genres                                             userId movieId rating
##    <chr>                                               <dbl>   <dbl>  <dbl>
##  1 (no genres listed)                                 57696    8606    4.5 
##  2 Action                                             35414.   2146.   2.96
##  3 Action|Adventure                                   36095.   2496.   3.66
##  4 Action|Adventure|Animation|Children|Comedy         36235.  10051.   3.95
##  5 Action|Adventure|Animation|Children|Comedy|Fantasy 24423.  51939    3.32
##  6 Action|Adventure|Animation|Children|Comedy|IMAX    36244.  62999    3.5 
##  7 Action|Adventure|Animation|Children|Comedy|Sci-Fi  37034.  45118.   2.99
##  8 Action|Adventure|Animation|Children|Fantasy        36570.    558    2.89
##  9 Action|Adventure|Animation|Children|Sci-Fi         50033.   8537    3.21
## 10 Action|Adventure|Animation|Comedy|Drama            36035.   8917    3.56
## # ℹ 759 more rows
…
